Final Project
…
Country

In this part, we will visualize how life expectancy is different
among each country.

life_avg <-Life_Expectancy_World %>%
  group_by(Country) %>%
  summarize(mean = mean(Life.expectancy))
life_avg # Finding out the average life of citizens by country over 2000~2015 

## # A tibble: 133 x 2
##    Country      mean
##    <chr>       <dbl>
##  1 Afghanistan  58.2
##  2 Albania      75.2
##  3 Algeria      74.2
##  4 Angola       50.7
##  5 Argentina    75.2
##  6 Armenia      73.3
##  7 Australia    81.9
##  8 Austria      81.5
##  9 Azerbaijan   71.1
## 10 Bangladesh   70.0
## # ... with 123 more rows
…
life_avg %>%
  arrange(desc(mean)) #arranging the data in descending order to have better understanding

## # A tibble: 133 x 2
##    Country      mean
##    <chr>       <dbl>
##  1 Ireland      83.4
##  2 Canada       82.2
##  3 France       82.2
##  4 Italy        82.2
##  5 Spain        82.0
##  6 Australia    81.9
##  7 Sweden       81.9
##  8 Austria      81.5
##  9 Netherlands  81.3
## 10 Greece       81.2
## # ... with 123 more rows
…
Boost_Prediction_actual <- Boost_Prediction %>%
  bind_cols(Life_Test)

## New names:
## * `Life.expectancy` -> `Life.expectancy...2`
## * `Life.expectancy` -> `Life.expectancy...6`

Boost_Prediction_actual

## # A tibble: 331 x 24
##    .pred Life.exp~1 Country  Year Status Life.~2 Adult~3 infan~4 Alcohol perce~5
##    <dbl>      <dbl> <chr>   <int> <chr>    <dbl>   <int>   <int>   <dbl>   <dbl>
##  1  57.7       57.3 Afghan~  2005 Devel~    57.3     291      85    0.02    1.39
##  2  56.9       57   Afghan~  2004 Devel~    57       293      87    0.02   15.3 
##  3  76.3       77.8 Albania  2015 Devel~    77.8      74       0    4.6   365.  
##  4  76.5       76.1 Albania  2009 Devel~    76.1      91       1    5.79  348.  
##  5  72.7       72.9 Algeria  2005 Devel~    72.9     136      19    0.5     2.55
##  6  54.1       51.1 Angola   2013 Devel~    51.1     355      69    8.1    36.0 
##  7  50.5       48.2 Angola   2007 Devel~    48.2     375      87    6.35  185.  
##  8  78.6       75.9 Argent~  2012 Devel~    75.9      12       9    8.35 1134.  
##  9  78.0       75.7 Argent~  2011 Devel~    75.7      12       9    8.11 1504.  
## 10  75.0       75.4 Argent~  2008 Devel~    75.4     126      10    8.41 1414.  
## # ... with 321 more rows, 14 more variables: Hepatitis.B <int>, Measles <int>,
## #   BMI <dbl>, under.five.deaths <int>, Polio <int>, Total.expenditure <dbl>,
## #   Diphtheria <int>, HIV.AIDS <dbl>, GDP <dbl>, Population <dbl>,
## #   thinness..1.19.years <dbl>, thinness.5.9.years <dbl>,
## #   Income.composition.of.resources <dbl>, Schooling <dbl>, and abbreviated
## #   variable names 1: Life.expectancy...2, 2: Life.expectancy...6,
## #   3: Adult.Mortality, 4: infant.deaths, 5: percentage.expenditure

Boost_augmented <- augment(boost_final_fit, new_data = Life_Test)
Boost_augmented

## # A tibble: 331 x 23
##    Country   Year Status Life.~1 Adult~2 infan~3 Alcohol perce~4 Hepat~5 Measles
##    <chr>    <int> <chr>    <dbl>   <int>   <int>   <dbl>   <dbl>   <int>   <int>
##  1 Afghani~  2005 Devel~    57.3     291      85    0.02    1.39      66    1296
##  2 Afghani~  2004 Devel~    57       293      87    0.02   15.3       67     466
##  3 Albania   2015 Devel~    77.8      74       0    4.6   365.        99       0
##  4 Albania   2009 Devel~    76.1      91       1    5.79  348.        98       0
##  5 Algeria   2005 Devel~    72.9     136      19    0.5     2.55      83    2302
##  6 Angola    2013 Devel~    51.1     355      69    8.1    36.0       77    8523
##  7 Angola    2007 Devel~    48.2     375      87    6.35  185.        73    1014
##  8 Argenti~  2012 Devel~    75.9      12       9    8.35 1134.        91       2
##  9 Argenti~  2011 Devel~    75.7      12       9    8.11 1504.        91       3
## 10 Argenti~  2008 Devel~    75.4     126      10    8.41 1414.         9       0
## # ... with 321 more rows, 13 more variables: BMI <dbl>,
## #   under.five.deaths <int>, Polio <int>, Total.expenditure <dbl>,
## #   Diphtheria <int>, HIV.AIDS <dbl>, GDP <dbl>, Population <dbl>,
## #   thinness..1.19.years <dbl>, thinness.5.9.years <dbl>,
## #   Income.composition.of.resources <dbl>, Schooling <dbl>, .pred <dbl>, and
## #   abbreviated variable names 1: Life.expectancy, 2: Adult.Mortality,
## #   3: infant.deaths, 4: percentage.expenditure, 5: Hepatitis.B
…
